
{
    label = "2_3",
    emitRedstone = true,
    buttonMode = true,
    shapes={
        {0, 0, 14, 1, 16, 15, texture="wool_colored_red"},
        {1, 1, 14, 2, 16, 15, texture="wool_colored_red"},
        {1, 0, 14, 2, 1, 15, texture="wool_colored_black"},
        {2, 1, 14, 3, 16, 15, texture="wool_colored_red"},
        {2, 0, 14, 3, 1, 15, texture="wool_colored_black"},
        {3, 2, 14, 4, 16, 15, texture="wool_colored_red"},
        {3, 0, 14, 4, 2, 15, texture="wool_colored_black"},
        {4, 3, 14, 5, 16, 15, texture="wool_colored_red"},
        {4, 0, 14, 5, 3, 15, texture="wool_colored_black"},
        {5, 4, 14, 6, 16, 15, texture="wool_colored_red"},
        {5, 0, 14, 6, 4, 15, texture="wool_colored_black"},
        {6, 4, 14, 7, 16, 15, texture="wool_colored_red"},
        {6, 0, 14, 7, 4, 15, texture="wool_colored_black"},
        {7, 5, 14, 8, 16, 15, texture="wool_colored_red"},
        {7, 1, 14, 8, 5, 15, texture="wool_colored_black"},
        {7, 0, 14, 8, 1, 15, texture="wool_colored_red"},
        {8, 6, 14, 9, 16, 15, texture="wool_colored_red"},
        {8, 2, 14, 9, 6, 15, texture="wool_colored_black"},
        {8, 0, 14, 9, 2, 15, texture="wool_colored_red"},
        {9, 6, 14, 10, 16, 15, texture="wool_colored_red"},
        {9, 3, 14, 10, 6, 15, texture="wool_colored_black"},
        {9, 0, 14, 10, 3, 15, texture="wool_colored_red"},
        {10, 7, 14, 11, 16, 15, texture="wool_colored_red"},
        {10, 3, 14, 11, 7, 15, texture="wool_colored_black"},
        {10, 0, 14, 11, 3, 15, texture="wool_colored_red"},
        {11, 7, 14, 12, 16, 15, texture="wool_colored_red"},
        {11, 4, 14, 12, 7, 15, texture="wool_colored_black"},
        {11, 0, 14, 12, 4, 15, texture="wool_colored_red"},
        {12, 8, 14, 13, 16, 15, texture="wool_colored_red"},
        {12, 5, 14, 13, 8, 15, texture="wool_colored_black"},
        {12, 0, 14, 13, 5, 15, texture="wool_colored_red"},
        {13, 9, 14, 14, 16, 15, texture="wool_colored_red"},
        {13, 5, 14, 14, 9, 15, texture="wool_colored_black"},
        {13, 0, 14, 14, 5, 15, texture="wool_colored_red"},
        {14, 9, 14, 15, 16, 15, texture="wool_colored_red"},
        {14, 6, 14, 15, 9, 15, texture="wool_colored_black"},
        {14, 0, 14, 15, 6, 15, texture="wool_colored_red"},
        {15, 9, 14, 16, 16, 15, texture="wool_colored_red"},
        {15, 6, 14, 16, 9, 15, texture="wool_colored_black"},
        {15, 0, 14, 16, 6, 15, texture="wool_colored_red"},
    }
}
                