
{
    label = "4_5",
    emitRedstone = true,
    buttonMode = true,
    shapes={
        {0, 12, 14, 1, 16, 15, texture="wool_colored_black"},
        {0, 0, 14, 1, 12, 15, texture="wool_colored_red"},
        {1, 12, 14, 2, 16, 15, texture="wool_colored_black"},
        {1, 0, 14, 2, 12, 15, texture="wool_colored_red"},
        {2, 12, 14, 3, 16, 15, texture="wool_colored_black"},
        {2, 0, 14, 3, 12, 15, texture="wool_colored_red"},
        {3, 11, 14, 4, 16, 15, texture="wool_colored_black"},
        {3, 0, 14, 4, 11, 15, texture="wool_colored_red"},
        {4, 11, 14, 5, 16, 15, texture="wool_colored_black"},
        {4, 0, 14, 5, 11, 15, texture="wool_colored_red"},
        {5, 10, 14, 6, 16, 15, texture="wool_colored_black"},
        {5, 0, 14, 6, 10, 15, texture="wool_colored_red"},
        {6, 10, 14, 7, 16, 15, texture="wool_colored_black"},
        {6, 0, 14, 7, 10, 15, texture="wool_colored_red"},
        {7, 9, 14, 8, 16, 15, texture="wool_colored_black"},
        {7, 0, 14, 8, 9, 15, texture="wool_colored_red"},
        {8, 8, 14, 9, 16, 15, texture="wool_colored_black"},
        {8, 0, 14, 9, 8, 15, texture="wool_colored_red"},
        {9, 7, 14, 10, 16, 15, texture="wool_colored_black"},
        {9, 0, 14, 10, 7, 15, texture="wool_colored_red"},
        {10, 5, 14, 11, 16, 15, texture="wool_colored_black"},
        {10, 0, 14, 11, 5, 15, texture="wool_colored_red"},
        {11, 3, 14, 12, 16, 15, texture="wool_colored_black"},
        {11, 0, 14, 12, 3, 15, texture="wool_colored_red"},
        {12, 0, 14, 13, 16, 15, texture="wool_colored_black"},
        {13, 0, 14, 14, 16, 15, texture="wool_colored_black"},
        {14, 0, 14, 15, 16, 15, texture="wool_colored_black"},
        {15, 0, 14, 16, 16, 15, texture="wool_colored_black"},
    }
}
                