
{
    label = "5_7",
    emitRedstone = true,
    buttonMode = true,
    shapes={
        {0, 13, 14, 1, 16, 15, texture="wool_colored_red"},
        {0, 0, 14, 1, 13, 15, texture="wool_colored_black"},
        {1, 12, 14, 2, 16, 15, texture="wool_colored_red"},
        {1, 0, 14, 2, 12, 15, texture="wool_colored_black"},
        {2, 11, 14, 3, 16, 15, texture="wool_colored_red"},
        {2, 0, 14, 3, 11, 15, texture="wool_colored_black"},
        {3, 10, 14, 4, 16, 15, texture="wool_colored_red"},
        {3, 0, 14, 4, 10, 15, texture="wool_colored_black"},
        {4, 9, 14, 5, 16, 15, texture="wool_colored_red"},
        {4, 0, 14, 5, 9, 15, texture="wool_colored_black"},
        {5, 8, 14, 6, 16, 15, texture="wool_colored_red"},
        {5, 0, 14, 6, 8, 15, texture="wool_colored_black"},
        {6, 7, 14, 7, 16, 15, texture="wool_colored_red"},
        {6, 0, 14, 7, 7, 15, texture="wool_colored_black"},
        {7, 6, 14, 8, 16, 15, texture="wool_colored_red"},
        {7, 0, 14, 8, 6, 15, texture="wool_colored_black"},
        {8, 6, 14, 9, 16, 15, texture="wool_colored_red"},
        {8, 0, 14, 9, 6, 15, texture="wool_colored_black"},
        {9, 0, 14, 10, 16, 15, texture="wool_colored_black"},
        {10, 0, 14, 11, 16, 15, texture="wool_colored_black"},
        {11, 5, 14, 12, 16, 15, texture="wool_colored_black"},
        {11, 2, 14, 12, 5, 15, texture="wool_colored_red"},
        {11, 0, 14, 12, 2, 15, texture="wool_colored_black"},
        {12, 1, 14, 13, 16, 15, texture="wool_colored_red"},
        {12, 0, 14, 13, 1, 15, texture="wool_colored_black"},
        {13, 0, 14, 14, 16, 15, texture="wool_colored_red"},
        {14, 0, 14, 15, 16, 15, texture="wool_colored_red"},
        {15, 0, 14, 16, 16, 15, texture="wool_colored_red"},
    }
}
                