
{
    label = "10_9",
    tooltip = "by ba3ement",
    emitRedstone = true,
    buttonMode = true,
    shapes={
        {0, 9, 14, 1, 16, 15, texture="ztones:sets/glaxx/glaxx_ (11)"},
        {0, 7, 14, 1, 9, 15, texture="wool_colored_orange"},
        {0, 6, 14, 1, 7, 15, texture="ztones:sets/sols/sols_ (1)"},
        {0, 5, 14, 1, 6, 15, texture="wool_colored_orange"},
        {0, 4, 14, 1, 5, 15, texture="ztones:sets/agon/agon_ (11)"},
        {0, 0, 14, 1, 4, 15, texture="ztones:sets/sols/sols_ (1)"},
        {1, 14, 14, 2, 16, 15, texture="ztones:sets/iszm/iszm_ (6)"},
        {1, 9, 14, 2, 14, 15, texture="wool_colored_orange"},
        {1, 7, 14, 2, 9, 15, texture="ztones:sets/sols/sols_ (1)"},
        {1, 6, 14, 2, 7, 15, texture="ztones:sets/iszm/iszm_ (6)"},
        {1, 5, 14, 2, 6, 15, texture="wool_colored_orange"},
        {1, 2, 14, 2, 5, 15, texture="ztones:sets/sols/sols_ (1)"},
        {1, 1, 14, 2, 2, 15, texture="ztones:sets/iszm/iszm_ (7)"},
        {1, 0, 14, 2, 1, 15, texture="wool_colored_orange"},
        {2, 10, 14, 3, 16, 15, texture="wool_colored_orange"},
        {2, 9, 14, 3, 10, 15, texture="ztones:sets/sols/sols_ (1)"},
        {2, 8, 14, 3, 9, 15, texture="wool_colored_orange"},
        {2, 6, 14, 3, 8, 15, texture="ztones:sets/myst/myst_ (5)"},
        {2, 4, 14, 3, 6, 15, texture="wool_colored_orange"},
        {2, 3, 14, 3, 4, 15, texture="ztones:sets/agon/agon_ (11)"},
        {2, 2, 14, 3, 3, 15, texture="ztones:sets/iszm/iszm_ (6)"},
        {2, 1, 14, 3, 2, 15, texture="ztones:sets/sols/sols_ (12)"},
        {2, 0, 14, 3, 1, 15, texture="wool_colored_orange"},
        {3, 12, 14, 4, 16, 15, texture="wool_colored_orange"},
        {3, 10, 14, 4, 12, 15, texture="ztones:sets/sols/sols_ (1)"},
        {3, 9, 14, 4, 10, 15, texture="wool_colored_orange"},
        {3, 8, 14, 4, 9, 15, texture="ztones:sets/iszm/iszm_ (6)"},
        {3, 3, 14, 4, 8, 15, texture="wool_colored_orange"},
        {3, 2, 14, 4, 3, 15, texture="ztones:sets/glaxx/glaxx_ (12)"},
        {3, 0, 14, 4, 2, 15, texture="wool_colored_orange"},
        {4, 15, 14, 5, 16, 15, texture="wool_colored_orange"},
        {4, 11, 14, 5, 15, 15, texture="ztones:sets/sols/sols_ (1)"},
        {4, 8, 14, 5, 11, 15, texture="wool_colored_orange"},
        {4, 6, 14, 5, 8, 15, texture="ztones:sets/sols/sols_ (1)"},
        {4, 1, 14, 5, 6, 15, texture="wool_colored_orange"},
        {4, 0, 14, 5, 1, 15, texture="ztones:sets/sols/sols_ (1)"},
        {5, 14, 14, 6, 16, 15, texture="ztones:sets/sols/sols_ (1)"},
        {5, 12, 14, 6, 14, 15, texture="ztones:sets/sols/sols_ (0)"},
        {5, 11, 14, 6, 12, 15, texture="ztones:sets/iszm/iszm_ (13)"},
        {5, 10, 14, 6, 11, 15, texture="ztones:sets/agon/agon_ (11)"},
        {5, 9, 14, 6, 10, 15, texture="wool_colored_orange"},
        {5, 8, 14, 6, 9, 15, texture="ztones:sets/sols/sols_ (12)"},
        {5, 7, 14, 6, 8, 15, texture="ztones:sets/iszm/iszm_ (6)"},
        {5, 6, 14, 6, 7, 15, texture="ztones:sets/fort/fort_ (12)"},
        {5, 5, 14, 6, 6, 15, texture="wool_colored_orange"},
        {5, 0, 14, 6, 5, 15, texture="ztones:sets/sols/sols_ (1)"},
        {6, 14, 14, 7, 16, 15, texture="ztones:sets/iszm/iszm_ (7)"},
        {6, 13, 14, 7, 14, 15, texture="wool_colored_orange"},
        {6, 12, 14, 7, 13, 15, texture="ztones:sets/iszm/iszm_ (7)"},
        {6, 11, 14, 7, 12, 15, texture="ztones:sets/sols/sols_ (1)"},
        {6, 8, 14, 7, 11, 15, texture="wool_colored_orange"},
        {6, 7, 14, 7, 8, 15, texture="ztones:sets/iszm/iszm_ (7)"},
        {6, 6, 14, 7, 7, 15, texture="ztones:sets/sols/sols_ (1)"},
        {6, 5, 14, 7, 6, 15, texture="ztones:sets/sols/sols_ (0)"},
        {6, 4, 14, 7, 5, 15, texture="ztones:sets/fort/fort_ (4)"},
        {6, 3, 14, 7, 4, 15, texture="ztones:sets/iszm/iszm_ (7)"},
        {6, 0, 14, 7, 3, 15, texture="ztones:sets/sols/sols_ (0)"},
        {7, 11, 14, 8, 16, 15, texture="ztones:sets/sols/sols_ (1)"},
        {7, 10, 14, 8, 11, 15, texture="wool_colored_orange"},
        {7, 8, 14, 8, 10, 15, texture="ztones:sets/sols/sols_ (1)"},
        {7, 7, 14, 8, 8, 15, texture="ztones:sets/glaxx/glaxx_ (1)"},
        {7, 6, 14, 8, 7, 15, texture="ztones:sets/sols/sols_ (0)"},
        {7, 5, 14, 8, 6, 15, texture="ztones:sets/iszm/iszm_ (7)"},
        {7, 2, 14, 8, 5, 15, texture="ztones:sets/sols/sols_ (1)"},
        {7, 0, 14, 8, 2, 15, texture="ztones:sets/sols/sols_ (4)"},
        {8, 15, 14, 9, 16, 15, texture="wool_colored_orange"},
        {8, 13, 14, 9, 15, 15, texture="ztones:sets/sols/sols_ (1)"},
        {8, 12, 14, 9, 13, 15, texture="wool_colored_orange"},
        {8, 10, 14, 9, 12, 15, texture="ztones:sets/sols/sols_ (1)"},
        {8, 9, 14, 9, 10, 15, texture="ztones:sets/sols/sols_ (4)"},
        {8, 8, 14, 9, 9, 15, texture="ztones:sets/sols/sols_ (1)"},
        {8, 7, 14, 9, 8, 15, texture="ztones:sets/sols/sols_ (0)"},
        {8, 6, 14, 9, 7, 15, texture="ztones:sets/iszm/iszm_ (7)"},
        {8, 5, 14, 9, 6, 15, texture="ztones:sets/sols/sols_ (1)"},
        {8, 3, 14, 9, 5, 15, texture="ztones:sets/sols/sols_ (4)"},
        {8, 2, 14, 9, 3, 15, texture="ztones:sets/glaxx/glaxx_ (1)"},
        {8, 1, 14, 9, 2, 15, texture="ztones:sets/myst/myst_ (0)"},
        {9, 12, 14, 10, 16, 15, texture="ztones:sets/sols/sols_ (1)"},
        {9, 11, 14, 10, 12, 15, texture="ztones:sets/sols/sols_ (4)"},
        {9, 10, 14, 10, 11, 15, texture="ztones:sets/sols/sols_ (0)"},
        {9, 9, 14, 10, 10, 15, texture="ztones:sets/iszm/iszm_ (13)"},
        {9, 8, 14, 10, 9, 15, texture="wool_colored_yellow"},
        {9, 7, 14, 10, 8, 15, texture="ztones:sets/sols/sols_ (0)"},
        {9, 5, 14, 10, 7, 15, texture="ztones:sets/sols/sols_ (1)"},
        {9, 4, 14, 10, 5, 15, texture="ztones:sets/myst/myst_ (0)"},
        {9, 3, 14, 10, 4, 15, texture="wool_colored_yellow"},
        {9, 2, 14, 10, 3, 15, texture="ztones:sets/cray/cray_ (1)"},
        {9, 1, 14, 10, 2, 15, texture="ztones:sets/agon/agon_ (14)"},
        {10, 13, 14, 11, 16, 15, texture="ztones:sets/sols/sols_ (4)"},
        {10, 12, 14, 11, 13, 15, texture="ztones:sets/sols/sols_ (0)"},
        {10, 11, 14, 11, 12, 15, texture="ztones:sets/fort/fort_ (2)"},
        {10, 10, 14, 11, 11, 15, texture="ztones:sets/agon/agon_ (14)"},
        {10, 7, 14, 11, 8, 15, texture="ztones:sets/cray/cray_ (1)"},
        {10, 6, 14, 11, 7, 15, texture="ztones:sets/lair/lair_ (10)"},
        {10, 4, 14, 11, 5, 15, texture="ztones:sets/iszm/iszm_ (2)"},
        {10, 3, 14, 11, 4, 15, texture="ztones:sets/glaxx/glaxx_ (14)"},
        {11, 15, 14, 12, 16, 15, texture="ztones:sets/myst/myst_ (0)"},
        {11, 14, 14, 12, 15, 15, texture="ztones:sets/iszm/iszm_ (13)"},
        {11, 13, 14, 12, 14, 15, texture="ztones:sets/cray/cray_ (14)"},
        {11, 12, 14, 12, 13, 15, texture="ztones:sets/iszm/iszm_ (2)"},
        {12, 15, 14, 13, 16, 15, texture="ztones:sets/cray/cray_ (15)"},
    }
}
                