
{
    label = "1_6",
    tooltip = "by ba3ement",
    emitRedstone = true,
    buttonMode = true,
    shapes={
        {1, 1, 14, 2, 2, 15, texture="ztones:sets/ztyl/ztyl_ (9)"},
        {1, 0, 14, 2, 1, 15, texture="ztones:sets/fort/fort_ (13)"},
        {2, 11, 14, 3, 12, 15, texture="ztones:sets/cray/cray_ (15)"},
        {2, 10, 14, 3, 11, 15, texture="ztones:sets/lair/lair_ (15)"},
        {2, 9, 14, 3, 10, 15, texture="ztones:sets/lair/lair_ (5)"},
        {2, 8, 14, 3, 9, 15, texture="ztones:sets/fort/fort_ (13)"},
        {2, 7, 14, 3, 8, 15, texture="ztones:sets/cray/cray_ (13)"},
        {2, 6, 14, 3, 7, 15, texture="ztones:sets/cray/cray_ (14)"},
        {2, 5, 14, 3, 6, 15, texture="ztones:sets/myst/myst_ (3)"},
        {2, 2, 14, 3, 3, 15, texture="wool_colored_red"},
        {2, 1, 14, 3, 2, 15, texture="wool_colored_orange"},
        {2, 0, 14, 3, 1, 15, texture="ztones:sets/sols/sols_ (1)"},
        {3, 13, 14, 4, 14, 15, texture="ztones:sets/cray/cray_ (15)"},
        {3, 12, 14, 4, 13, 15, texture="ztones:sets/fort/fort_ (13)"},
        {3, 11, 14, 4, 12, 15, texture="ztones:sets/agon/agon_ (11)"},
        {3, 6, 14, 4, 11, 15, texture="ztones:sets/sols/sols_ (1)"},
        {3, 5, 14, 4, 6, 15, texture="wool_colored_orange"},
        {3, 3, 14, 4, 5, 15, texture="hardened_clay_stained_orange"},
        {3, 1, 14, 4, 3, 15, texture="ztones:sets/sols/sols_ (1)"},
        {3, 0, 14, 4, 1, 15, texture="ztones:sets/fort/fort_ (12)"},
        {4, 14, 14, 5, 15, 15, texture="ztones:sets/cray/cray_ (13)"},
        {4, 13, 14, 5, 14, 15, texture="ztones:sets/agon/agon_ (11)"},
        {4, 11, 14, 5, 13, 15, texture="ztones:sets/sols/sols_ (1)"},
        {4, 5, 14, 5, 11, 15, texture="wool_colored_orange"},
        {4, 4, 14, 5, 5, 15, texture="ztones:sets/sols/sols_ (1)"},
        {4, 3, 14, 5, 4, 15, texture="wool_colored_orange"},
        {4, 1, 14, 5, 3, 15, texture="ztones:sets/myst/myst_ (5)"},
        {4, 0, 14, 5, 1, 15, texture="ztones:sets/agon/agon_ (11)"},
        {5, 15, 14, 6, 16, 15, texture="ztones:sets/sols/sols_ (13)"},
        {5, 14, 14, 6, 15, 15, texture="ztones:sets/sols/sols_ (1)"},
        {5, 13, 14, 6, 14, 15, texture="wool_colored_orange"},
        {5, 11, 14, 6, 13, 15, texture="ztones:sets/fort/fort_ (12)"},
        {5, 6, 14, 6, 11, 15, texture="wool_colored_orange"},
        {5, 5, 14, 6, 6, 15, texture="ztones:sets/fort/fort_ (12)"},
        {5, 4, 14, 6, 5, 15, texture="ztones:sets/myst/myst_ (5)"},
        {5, 3, 14, 6, 4, 15, texture="ztones:sets/agon/agon_ (11)"},
        {5, 2, 14, 6, 3, 15, texture="wool_colored_orange"},
        {5, 0, 14, 6, 2, 15, texture="ztones:sets/sols/sols_ (1)"},
        {6, 15, 14, 7, 16, 15, texture="ztones:sets/sols/sols_ (1)"},
        {6, 7, 14, 7, 15, 15, texture="wool_colored_orange"},
        {6, 6, 14, 7, 7, 15, texture="hardened_clay_stained_red"},
        {6, 5, 14, 7, 6, 15, texture="wool_colored_orange"},
        {6, 2, 14, 7, 5, 15, texture="ztones:sets/sols/sols_ (1)"},
        {6, 0, 14, 7, 2, 15, texture="wool_colored_orange"},
        {7, 14, 14, 8, 16, 15, texture="ztones:sets/fort/fort_ (12)"},
        {7, 9, 14, 8, 14, 15, texture="wool_colored_orange"},
        {7, 8, 14, 8, 9, 15, texture="ztones:sets/iszm/iszm_ (6)"},
        {7, 7, 14, 8, 8, 15, texture="ztones:sets/myst/myst_ (5)"},
        {7, 6, 14, 8, 7, 15, texture="wool_colored_orange"},
        {7, 5, 14, 8, 6, 15, texture="ztones:sets/sols/sols_ (1)"},
        {7, 0, 14, 8, 5, 15, texture="wool_colored_orange"},
        {8, 15, 14, 9, 16, 15, texture="ztones:sets/fort/fort_ (12)"},
        {8, 11, 14, 9, 15, 15, texture="ztones:sets/myst/myst_ (5)"},
        {8, 10, 14, 9, 11, 15, texture="ztones:sets/fort/fort_ (12)"},
        {8, 9, 14, 9, 10, 15, texture="ztones:sets/iszm/iszm_ (6)"},
        {8, 8, 14, 9, 9, 15, texture="ztones:sets/myst/myst_ (5)"},
        {8, 6, 14, 9, 8, 15, texture="ztones:sets/sols/sols_ (1)"},
        {8, 5, 14, 9, 6, 15, texture="ztones:sets/fort/fort_ (12)"},
        {8, 2, 14, 9, 5, 15, texture="wool_colored_orange"},
        {8, 0, 14, 9, 2, 15, texture="ztones:sets/fort/fort_ (12)"},
        {9, 13, 14, 10, 16, 15, texture="ztones:sets/sols/sols_ (1)"},
        {9, 11, 14, 10, 13, 15, texture="wool_colored_orange"},
        {9, 10, 14, 10, 11, 15, texture="hardened_clay_stained_orange"},
        {9, 9, 14, 10, 10, 15, texture="ztones:sets/myst/myst_ (5)"},
        {9, 7, 14, 10, 9, 15, texture="ztones:sets/sols/sols_ (1)"},
        {9, 6, 14, 10, 7, 15, texture="ztones:sets/fort/fort_ (12)"},
        {9, 5, 14, 10, 6, 15, texture="wool_colored_orange"},
        {9, 3, 14, 10, 5, 15, texture="ztones:sets/fort/fort_ (12)"},
        {9, 0, 14, 10, 3, 15, texture="ztones:sets/agon/agon_ (11)"},
        {10, 13, 14, 11, 16, 15, texture="ztones:sets/fort/fort_ (12)"},
        {10, 12, 14, 11, 13, 15, texture="wool_colored_orange"},
        {10, 11, 14, 11, 12, 15, texture="ztones:sets/fort/fort_ (12)"},
        {10, 10, 14, 11, 11, 15, texture="ztones:sets/myst/myst_ (5)"},
        {10, 9, 14, 11, 10, 15, texture="ztones:sets/sols/sols_ (1)"},
        {10, 8, 14, 11, 9, 15, texture="wool_colored_orange"},
        {10, 7, 14, 11, 8, 15, texture="ztones:sets/fort/fort_ (12)"},
        {10, 5, 14, 11, 7, 15, texture="wool_colored_orange"},
        {10, 4, 14, 11, 5, 15, texture="ztones:sets/agon/agon_ (11)"},
        {10, 2, 14, 11, 4, 15, texture="wool_colored_orange"},
        {10, 0, 14, 11, 2, 15, texture="ztones:sets/sols/sols_ (1)"},
        {11, 13, 14, 12, 16, 15, texture="wool_colored_orange"},
        {11, 12, 14, 12, 13, 15, texture="ztones:sets/myst/myst_ (5)"},
        {11, 11, 14, 12, 12, 15, texture="hardened_clay_stained_orange"},
        {11, 10, 14, 12, 11, 15, texture="ztones:sets/sols/sols_ (1)"},
        {11, 0, 14, 12, 10, 15, texture="wool_colored_orange"},
        {12, 13, 14, 13, 16, 15, texture="ztones:sets/sols/sols_ (1)"},
        {12, 12, 14, 13, 13, 15, texture="ztones:sets/myst/myst_ (5)"},
        {12, 11, 14, 13, 12, 15, texture="hardened_clay_stained_orange"},
        {12, 7, 14, 13, 11, 15, texture="ztones:sets/sols/sols_ (1)"},
        {12, 0, 14, 13, 7, 15, texture="wool_colored_orange"},
        {13, 13, 14, 14, 16, 15, texture="wool_colored_orange"},
        {13, 12, 14, 14, 13, 15, texture="ztones:sets/sols/sols_ (1)"},
        {13, 11, 14, 14, 12, 15, texture="wool_colored_orange"},
        {13, 9, 14, 14, 11, 15, texture="ztones:sets/myst/myst_ (5)"},
        {13, 8, 14, 14, 9, 15, texture="wool_colored_orange"},
        {13, 1, 14, 14, 8, 15, texture="ztones:sets/sols/sols_ (1)"},
        {13, 0, 14, 14, 1, 15, texture="wool_colored_orange"},
        {14, 10, 14, 15, 16, 15, texture="ztones:sets/sols/sols_ (1)"},
        {14, 9, 14, 15, 10, 15, texture="wool_colored_orange"},
        {14, 7, 14, 15, 9, 15, texture="ztones:sets/agon/agon_ (11)"},
        {14, 0, 14, 15, 7, 15, texture="wool_colored_orange"},
        {15, 9, 14, 16, 16, 15, texture="ztones:sets/sols/sols_ (1)"},
        {15, 8, 14, 16, 9, 15, texture="wool_colored_orange"},
        {15, 7, 14, 16, 8, 15, texture="ztones:sets/agon/agon_ (11)"},
        {15, 1, 14, 16, 7, 15, texture="ztones:sets/sols/sols_ (0)"},
        {15, 0, 14, 16, 1, 15, texture="ztones:sets/sols/sols_ (1)"},
    }
}
                