
{
    label = "2_9",
    tooltip = "by ba3ement",
    emitRedstone = true,
    buttonMode = true,
    shapes={
        {0, 15, 14, 1, 16, 15, texture="wool_colored_orange"},
        {0, 14, 14, 1, 15, 15, texture="ztones:sets/glaxx/glaxx_ (12)"},
        {0, 13, 14, 1, 14, 15, texture="ztones:sets/sols/sols_ (1)"},
        {0, 12, 14, 1, 13, 15, texture="wool_colored_orange"},
        {0, 11, 14, 1, 12, 15, texture="hardened_clay_stained_red"},
        {0, 5, 14, 1, 11, 15, texture="wool_colored_orange"},
        {0, 4, 14, 1, 5, 15, texture="ztones:sets/sols/sols_ (1)"},
        {0, 3, 14, 1, 4, 15, texture="wool_colored_orange"},
        {0, 1, 14, 1, 3, 15, texture="ztones:sets/iszm/iszm_ (6)"},
        {0, 0, 14, 1, 1, 15, texture="wool_colored_orange"},
        {1, 15, 14, 2, 16, 15, texture="hardened_clay_stained_orange"},
        {1, 14, 14, 2, 15, 15, texture="ztones:sets/iszm/iszm_ (6)"},
        {1, 13, 14, 2, 14, 15, texture="ztones:sets/sols/sols_ (12)"},
        {1, 12, 14, 2, 13, 15, texture="wool_colored_orange"},
        {1, 11, 14, 2, 12, 15, texture="hardened_clay_stained_orange"},
        {1, 10, 14, 2, 11, 15, texture="ztones:sets/fort/fort_ (13)"},
        {1, 2, 14, 2, 10, 15, texture="wool_colored_orange"},
        {1, 0, 14, 2, 2, 15, texture="ztones:sets/iszm/iszm_ (6)"},
        {2, 11, 14, 3, 16, 15, texture="wool_colored_orange"},
        {2, 10, 14, 3, 11, 15, texture="hardened_clay_stained_orange"},
        {2, 9, 14, 3, 10, 15, texture="ztones:sets/myst/myst_ (5)"},
        {2, 8, 14, 3, 9, 15, texture="ztones:sets/fort/fort_ (12)"},
        {2, 7, 14, 3, 8, 15, texture="ztones:sets/myst/myst_ (14)"},
        {2, 1, 14, 3, 7, 15, texture="wool_colored_orange"},
        {2, 0, 14, 3, 1, 15, texture="ztones:sets/iszm/iszm_ (6)"},
        {3, 9, 14, 4, 16, 15, texture="ztones:sets/sols/sols_ (1)"},
        {3, 7, 14, 4, 9, 15, texture="wool_colored_orange"},
        {3, 6, 14, 4, 7, 15, texture="ztones:sets/myst/myst_ (5)"},
        {3, 5, 14, 4, 6, 15, texture="ztones:sets/myst/myst_ (14)"},
        {3, 0, 14, 4, 5, 15, texture="wool_colored_orange"},
        {4, 15, 14, 5, 16, 15, texture="ztones:sets/sols/sols_ (1)"},
        {4, 9, 14, 5, 15, 15, texture="wool_colored_orange"},
        {4, 7, 14, 5, 9, 15, texture="ztones:sets/sols/sols_ (1)"},
        {4, 6, 14, 5, 7, 15, texture="wool_colored_orange"},
        {4, 5, 14, 5, 6, 15, texture="hardened_clay_stained_orange"},
        {4, 4, 14, 5, 5, 15, texture="ztones:sets/fort/fort_ (12)"},
        {4, 0, 14, 5, 4, 15, texture="wool_colored_orange"},
        {5, 13, 14, 6, 16, 15, texture="ztones:sets/sols/sols_ (1)"},
        {5, 7, 14, 6, 13, 15, texture="wool_colored_orange"},
        {5, 5, 14, 6, 7, 15, texture="ztones:sets/sols/sols_ (1)"},
        {5, 4, 14, 6, 5, 15, texture="ztones:sets/agon/agon_ (11)"},
        {5, 3, 14, 6, 4, 15, texture="ztones:sets/fort/fort_ (12)"},
        {5, 2, 14, 6, 3, 15, texture="wool_colored_orange"},
        {5, 1, 14, 6, 2, 15, texture="ztones:sets/fort/fort_ (12)"},
        {5, 0, 14, 6, 1, 15, texture="ztones:sets/iszm/iszm_ (6)"},
        {6, 11, 14, 7, 16, 15, texture="ztones:sets/sols/sols_ (1)"},
        {6, 6, 14, 7, 11, 15, texture="wool_colored_orange"},
        {6, 4, 14, 7, 6, 15, texture="ztones:sets/sols/sols_ (1)"},
        {6, 3, 14, 7, 4, 15, texture="hardened_clay_stained_orange"},
        {6, 2, 14, 7, 3, 15, texture="ztones:sets/fort/fort_ (12)"},
        {6, 1, 14, 7, 2, 15, texture="ztones:sets/iszm/iszm_ (6)"},
        {6, 0, 14, 7, 1, 15, texture="wool_colored_orange"},
        {7, 10, 14, 8, 16, 15, texture="ztones:sets/sols/sols_ (1)"},
        {7, 9, 14, 8, 10, 15, texture="wool_colored_orange"},
        {7, 8, 14, 8, 9, 15, texture="ztones:sets/sols/sols_ (12)"},
        {7, 7, 14, 8, 8, 15, texture="wool_colored_orange"},
        {7, 6, 14, 8, 7, 15, texture="ztones:sets/sols/sols_ (1)"},
        {7, 5, 14, 8, 6, 15, texture="wool_colored_orange"},
        {7, 3, 14, 8, 5, 15, texture="ztones:sets/sols/sols_ (1)"},
        {7, 2, 14, 8, 3, 15, texture="ztones:sets/myst/myst_ (5)"},
        {7, 1, 14, 8, 2, 15, texture="ztones:sets/fort/fort_ (12)"},
        {7, 0, 14, 8, 1, 15, texture="ztones:sets/glaxx/glaxx_ (11)"},
        {8, 15, 14, 9, 16, 15, texture="wool_colored_orange"},
        {8, 9, 14, 9, 15, 15, texture="ztones:sets/sols/sols_ (1)"},
        {8, 8, 14, 9, 9, 15, texture="wool_colored_orange"},
        {8, 7, 14, 9, 8, 15, texture="ztones:sets/iszm/iszm_ (6)"},
        {8, 6, 14, 9, 7, 15, texture="ztones:sets/sols/sols_ (12)"},
        {8, 4, 14, 9, 6, 15, texture="wool_colored_orange"},
        {8, 2, 14, 9, 4, 15, texture="ztones:sets/sols/sols_ (1)"},
        {8, 1, 14, 9, 2, 15, texture="ztones:sets/myst/myst_ (5)"},
        {8, 0, 14, 9, 1, 15, texture="wool_colored_orange"},
        {9, 15, 14, 10, 16, 15, texture="ztones:sets/myst/myst_ (5)"},
        {9, 7, 14, 10, 15, 15, texture="ztones:sets/sols/sols_ (1)"},
        {9, 6, 14, 10, 7, 15, texture="wool_colored_orange"},
        {9, 5, 14, 10, 6, 15, texture="ztones:sets/sols/sols_ (12)"},
        {9, 3, 14, 10, 5, 15, texture="wool_colored_orange"},
        {9, 2, 14, 10, 3, 15, texture="ztones:sets/sols/sols_ (1)"},
        {9, 1, 14, 10, 2, 15, texture="ztones:sets/iszm/iszm_ (6)"},
        {9, 0, 14, 10, 1, 15, texture="wool_colored_orange"},
        {10, 15, 14, 11, 16, 15, texture="wool_colored_orange"},
        {10, 14, 14, 11, 15, 15, texture="ztones:sets/agon/agon_ (11)"},
        {10, 6, 14, 11, 14, 15, texture="ztones:sets/sols/sols_ (1)"},
        {10, 5, 14, 11, 6, 15, texture="wool_colored_orange"},
        {10, 4, 14, 11, 5, 15, texture="ztones:sets/sols/sols_ (12)"},
        {10, 3, 14, 11, 4, 15, texture="wool_colored_orange"},
        {10, 2, 14, 11, 3, 15, texture="ztones:sets/sols/sols_ (1)"},
        {10, 1, 14, 11, 2, 15, texture="ztones:sets/sols/sols_ (12)"},
        {10, 0, 14, 11, 1, 15, texture="wool_colored_orange"},
        {11, 15, 14, 12, 16, 15, texture="ztones:sets/sols/sols_ (1)"},
        {11, 14, 14, 12, 15, 15, texture="ztones:sets/iszm/iszm_ (13)"},
        {11, 13, 14, 12, 14, 15, texture="wool_colored_orange"},
        {11, 12, 14, 12, 13, 15, texture="ztones:sets/iszm/iszm_ (7)"},
        {11, 8, 14, 12, 12, 15, texture="wool_colored_orange"},
        {11, 4, 14, 12, 8, 15, texture="ztones:sets/sols/sols_ (1)"},
        {11, 3, 14, 12, 4, 15, texture="ztones:sets/iszm/iszm_ (6)"},
        {11, 2, 14, 12, 3, 15, texture="ztones:sets/glaxx/glaxx_ (12)"},
        {11, 1, 14, 12, 2, 15, texture="wool_colored_orange"},
        {11, 0, 14, 12, 1, 15, texture="ztones:sets/iszm/iszm_ (6)"},
        {12, 10, 14, 13, 16, 15, texture="ztones:sets/sols/sols_ (1)"},
        {12, 7, 14, 13, 10, 15, texture="ztones:sets/iszm/iszm_ (7)"},
        {12, 5, 14, 13, 7, 15, texture="wool_colored_orange"},
        {12, 4, 14, 13, 5, 15, texture="ztones:sets/sols/sols_ (1)"},
        {12, 2, 14, 13, 4, 15, texture="wool_colored_orange"},
        {12, 1, 14, 13, 2, 15, texture="ztones:sets/sols/sols_ (1)"},
        {12, 0, 14, 13, 1, 15, texture="ztones:sets/agon/agon_ (10)"},
        {13, 15, 14, 14, 16, 15, texture="ztones:sets/sols/sols_ (1)"},
        {13, 14, 14, 14, 15, 15, texture="ztones:sets/glaxx/glaxx_ (12)"},
        {13, 7, 14, 14, 14, 15, texture="ztones:sets/sols/sols_ (1)"},
        {13, 6, 14, 14, 7, 15, texture="ztones:sets/sols/sols_ (0)"},
        {13, 5, 14, 14, 6, 15, texture="ztones:sets/iszm/iszm_ (7)"},
        {13, 4, 14, 14, 5, 15, texture="wool_colored_orange"},
        {13, 3, 14, 14, 4, 15, texture="ztones:sets/sols/sols_ (1)"},
        {13, 2, 14, 14, 3, 15, texture="wool_colored_orange"},
        {13, 1, 14, 14, 2, 15, texture="ztones:sets/glaxx/glaxx_ (12)"},
        {13, 0, 14, 14, 1, 15, texture="ztones:sets/sols/sols_ (12)"},
        {14, 14, 14, 15, 16, 15, texture="ztones:sets/sols/sols_ (1)"},
        {14, 13, 14, 15, 14, 15, texture="ztones:sets/glaxx/glaxx_ (12)"},
        {14, 12, 14, 15, 13, 15, texture="wool_colored_orange"},
        {14, 8, 14, 15, 12, 15, texture="ztones:sets/sols/sols_ (1)"},
        {14, 7, 14, 15, 8, 15, texture="wool_colored_orange"},
        {14, 5, 14, 15, 7, 15, texture="ztones:sets/sols/sols_ (1)"},
        {14, 4, 14, 15, 5, 15, texture="ztones:sets/iszm/iszm_ (7)"},
        {14, 3, 14, 15, 4, 15, texture="wool_colored_orange"},
        {14, 2, 14, 15, 3, 15, texture="ztones:sets/sols/sols_ (1)"},
        {14, 0, 14, 15, 2, 15, texture="wool_colored_orange"},
        {15, 13, 14, 16, 16, 15, texture="ztones:sets/sols/sols_ (1)"},
        {15, 12, 14, 16, 13, 15, texture="wool_colored_orange"},
        {15, 11, 14, 16, 12, 15, texture="ztones:sets/sols/sols_ (12)"},
        {15, 10, 14, 16, 11, 15, texture="wool_colored_orange"},
        {15, 6, 14, 16, 10, 15, texture="ztones:sets/sols/sols_ (1)"},
        {15, 5, 14, 16, 6, 15, texture="ztones:sets/glaxx/glaxx_ (12)"},
        {15, 4, 14, 16, 5, 15, texture="ztones:sets/sols/sols_ (1)"},
        {15, 3, 14, 16, 4, 15, texture="ztones:sets/sols/sols_ (0)"},
        {15, 0, 14, 16, 3, 15, texture="wool_colored_orange"},
    }
}
                