
{
    label = "5_9",
    tooltip = "by ba3ement",
    emitRedstone = true,
    buttonMode = true,
    shapes={
        {0, 2, 14, 1, 3, 15, texture="ztones:sets/lair/lair_ (15)"},
        {0, 1, 14, 1, 2, 15, texture="ztones:sets/iszm/iszm_ (7)"},
        {0, 0, 14, 1, 1, 15, texture="ztones:sets/myst/myst_ (1)"},
        {1, 2, 14, 2, 3, 15, texture="ztones:sets/vena/vena_ (0)"},
        {1, 1, 14, 2, 2, 15, texture="ztones:sets/iszm/iszm_ (13)"},
        {1, 0, 14, 2, 1, 15, texture="wool_colored_orange"},
        {2, 1, 14, 3, 2, 15, texture="ztones:sets/fort/fort_ (2)"},
        {2, 0, 14, 3, 1, 15, texture="wool_colored_orange"},
        {3, 0, 14, 4, 1, 15, texture="ztones:sets/fort/fort_ (14)"},
        {8, 0, 14, 9, 1, 15, texture="ztones:sets/glaxx/glaxx_ (15)"},
        {9, 0, 14, 10, 1, 15, texture="wool_colored_brown"},
        {10, 1, 14, 11, 2, 15, texture="ztones:sets/agon/agon_ (14)"},
        {10, 0, 14, 11, 1, 15, texture="hardened_clay_stained_red"},
        {11, 1, 14, 12, 2, 15, texture="ztones:sets/cray/cray_ (15)"},
        {11, 0, 14, 12, 1, 15, texture="ztones:sets/agon/agon_ (10)"},
        {12, 1, 14, 13, 2, 15, texture="ztones:sets/fort/fort_ (0)"},
        {12, 0, 14, 13, 1, 15, texture="wool_colored_red"},
        {13, 1, 14, 14, 2, 15, texture="ztones:sets/lair/lair_ (2)"},
        {13, 0, 14, 14, 1, 15, texture="ztones:sets/fort/fort_ (14)"},
        {14, 3, 14, 15, 4, 15, texture="ztones:sets/reds/reds_ (15)"},
        {14, 1, 14, 15, 2, 15, texture="ztones:sets/fort/fort_ (13)"},
        {14, 0, 14, 15, 1, 15, texture="ztones:sets/iszm/iszm_ (10)"},
        {15, 3, 14, 16, 4, 15, texture="wool_colored_red"},
        {15, 2, 14, 16, 3, 15, texture="ztones:sets/fort/fort_ (15)"},
        {15, 1, 14, 16, 2, 15, texture="ztones:sets/lair/lair_ (2)"},
        {15, 0, 14, 16, 1, 15, texture="ztones:sets/fort/fort_ (13)"},
    }
}
                