
{
    label = "7_4",
    tooltip = "by ba3ement",
    emitRedstone = true,
    buttonMode = true,
    shapes={
        {0, 15, 14, 1, 16, 15, texture="wool_colored_orange"},
        {0, 3, 14, 1, 15, 15, texture="ztones:sets/glaxx/glaxx_ (11)"},
        {0, 2, 14, 1, 3, 15, texture="ztones:sets/iszm/iszm_ (6)"},
        {0, 1, 14, 1, 2, 15, texture="ztones:sets/roen/roen_ (2)"},
        {0, 0, 14, 1, 1, 15, texture="ztones:sets/lair/lair_ (15)"},
        {1, 3, 14, 2, 16, 15, texture="ztones:sets/glaxx/glaxx_ (11)"},
        {1, 2, 14, 2, 3, 15, texture="ztones:sets/iszm/iszm_ (6)"},
        {1, 1, 14, 2, 2, 15, texture="ztones:sets/roen/roen_ (2)"},
        {1, 0, 14, 2, 1, 15, texture="ztones:sets/lair/lair_ (15)"},
        {2, 14, 14, 3, 16, 15, texture="ztones:sets/glaxx/glaxx_ (11)"},
        {2, 12, 14, 3, 14, 15, texture="ztones:sets/iszm/iszm_ (6)"},
        {2, 3, 14, 3, 12, 15, texture="ztones:sets/glaxx/glaxx_ (11)"},
        {2, 2, 14, 3, 3, 15, texture="ztones:sets/agon/agon_ (10)"},
        {2, 1, 14, 3, 2, 15, texture="ztones:sets/fort/fort_ (11)"},
        {2, 0, 14, 3, 1, 15, texture="ztones:sets/kryp/kryp_ (5)"},
        {3, 14, 14, 4, 16, 15, texture="ztones:sets/glaxx/glaxx_ (11)"},
        {3, 13, 14, 4, 14, 15, texture="ztones:sets/iszm/iszm_ (6)"},
        {3, 12, 14, 4, 13, 15, texture="ztones:sets/sols/sols_ (15)"},
        {3, 11, 14, 4, 12, 15, texture="ztones:sets/agon/agon_ (10)"},
        {3, 2, 14, 4, 11, 15, texture="ztones:sets/glaxx/glaxx_ (11)"},
        {3, 1, 14, 4, 2, 15, texture="ztones:sets/agon/agon_ (12)"},
        {3, 0, 14, 4, 1, 15, texture="ztones:sets/agon/agon_ (14)"},
        {4, 12, 14, 5, 16, 15, texture="ztones:sets/glaxx/glaxx_ (11)"},
        {4, 11, 14, 5, 12, 15, texture="ztones:sets/iszm/iszm_ (6)"},
        {4, 10, 14, 5, 11, 15, texture="ztones:sets/glaxx/glaxx_ (11)"},
        {4, 7, 14, 5, 10, 15, texture="wool_colored_orange"},
        {4, 4, 14, 5, 7, 15, texture="ztones:sets/glaxx/glaxx_ (11)"},
        {4, 3, 14, 5, 4, 15, texture="wool_colored_orange"},
        {4, 1, 14, 5, 3, 15, texture="ztones:sets/glaxx/glaxx_ (11)"},
        {4, 0, 14, 5, 1, 15, texture="wool_colored_brown"},
        {5, 9, 14, 6, 16, 15, texture="ztones:sets/glaxx/glaxx_ (11)"},
        {5, 7, 14, 6, 9, 15, texture="wool_colored_orange"},
        {5, 0, 14, 6, 7, 15, texture="ztones:sets/glaxx/glaxx_ (11)"},
        {6, 15, 14, 7, 16, 15, texture="ztones:sets/agon/agon_ (10)"},
        {6, 14, 14, 7, 15, 15, texture="ztones:sets/iszm/iszm_ (6)"},
        {6, 12, 14, 7, 14, 15, texture="ztones:sets/agon/agon_ (10)"},
        {6, 11, 14, 7, 12, 15, texture="ztones:sets/iszm/iszm_ (6)"},
        {6, 10, 14, 7, 11, 15, texture="wool_colored_orange"},
        {6, 1, 14, 7, 10, 15, texture="ztones:sets/glaxx/glaxx_ (11)"},
        {6, 0, 14, 7, 1, 15, texture="ztones:sets/sols/sols_ (1)"},
        {7, 15, 14, 8, 16, 15, texture="ztones:sets/fort/fort_ (13)"},
        {7, 13, 14, 8, 15, 15, texture="wool_colored_orange"},
        {7, 11, 14, 8, 13, 15, texture="ztones:sets/iszm/iszm_ (6)"},
        {7, 10, 14, 8, 11, 15, texture="ztones:sets/agon/agon_ (10)"},
        {7, 1, 14, 8, 10, 15, texture="ztones:sets/glaxx/glaxx_ (11)"},
        {7, 0, 14, 8, 1, 15, texture="ztones:sets/iszm/iszm_ (6)"},
        {8, 15, 14, 9, 16, 15, texture="ztones:sets/fort/fort_ (12)"},
        {8, 14, 14, 9, 15, 15, texture="ztones:sets/fort/fort_ (13)"},
        {8, 12, 14, 9, 14, 15, texture="wool_colored_orange"},
        {8, 11, 14, 9, 12, 15, texture="ztones:sets/sols/sols_ (1)"},
        {8, 10, 14, 9, 11, 15, texture="wool_colored_orange"},
        {8, 9, 14, 9, 10, 15, texture="hardened_clay_stained_red"},
        {8, 8, 14, 9, 9, 15, texture="ztones:sets/sols/sols_ (12)"},
        {8, 2, 14, 9, 8, 15, texture="ztones:sets/glaxx/glaxx_ (11)"},
        {8, 1, 14, 9, 2, 15, texture="wool_colored_orange"},
        {8, 0, 14, 9, 1, 15, texture="ztones:sets/fort/fort_ (12)"},
        {9, 14, 14, 10, 16, 15, texture="hardened_clay_stained_red"},
        {9, 11, 14, 10, 14, 15, texture="ztones:sets/iszm/iszm_ (6)"},
        {9, 9, 14, 10, 11, 15, texture="wool_colored_orange"},
        {9, 8, 14, 10, 9, 15, texture="ztones:sets/fort/fort_ (13)"},
        {9, 7, 14, 10, 8, 15, texture="ztones:sets/iszm/iszm_ (6)"},
        {9, 2, 14, 10, 7, 15, texture="ztones:sets/glaxx/glaxx_ (11)"},
        {9, 1, 14, 10, 2, 15, texture="wool_colored_orange"},
        {9, 0, 14, 10, 1, 15, texture="ztones:sets/fort/fort_ (12)"},
        {10, 15, 14, 11, 16, 15, texture="ztones:sets/iszm/iszm_ (6)"},
        {10, 14, 14, 11, 15, 15, texture="ztones:sets/sols/sols_ (1)"},
        {10, 13, 14, 11, 14, 15, texture="wool_colored_orange"},
        {10, 12, 14, 11, 13, 15, texture="ztones:sets/agon/agon_ (10)"},
        {10, 10, 14, 11, 12, 15, texture="ztones:sets/iszm/iszm_ (6)"},
        {10, 9, 14, 11, 10, 15, texture="wool_colored_orange"},
        {10, 8, 14, 11, 9, 15, texture="ztones:sets/sols/sols_ (1)"},
        {10, 7, 14, 11, 8, 15, texture="hardened_clay_stained_red"},
        {10, 6, 14, 11, 7, 15, texture="ztones:sets/iszm/iszm_ (6)"},
        {10, 5, 14, 11, 6, 15, texture="wool_colored_orange"},
        {10, 3, 14, 11, 5, 15, texture="ztones:sets/glaxx/glaxx_ (11)"},
        {10, 2, 14, 11, 3, 15, texture="wool_colored_orange"},
        {10, 0, 14, 11, 2, 15, texture="ztones:sets/iszm/iszm_ (6)"},
        {11, 15, 14, 12, 16, 15, texture="ztones:sets/sols/sols_ (1)"},
        {11, 14, 14, 12, 15, 15, texture="wool_colored_orange"},
        {11, 13, 14, 12, 14, 15, texture="ztones:sets/sols/sols_ (1)"},
        {11, 12, 14, 12, 13, 15, texture="wool_colored_orange"},
        {11, 9, 14, 12, 12, 15, texture="ztones:sets/iszm/iszm_ (6)"},
        {11, 7, 14, 12, 9, 15, texture="wool_colored_orange"},
        {11, 6, 14, 12, 7, 15, texture="ztones:sets/iszm/iszm_ (10)"},
        {11, 5, 14, 12, 6, 15, texture="ztones:sets/iszm/iszm_ (6)"},
        {11, 4, 14, 12, 5, 15, texture="wool_colored_orange"},
        {11, 3, 14, 12, 4, 15, texture="ztones:sets/iszm/iszm_ (6)"},
        {11, 2, 14, 12, 3, 15, texture="ztones:sets/fort/fort_ (12)"},
        {11, 0, 14, 12, 2, 15, texture="ztones:sets/iszm/iszm_ (6)"},
        {12, 15, 14, 13, 16, 15, texture="wool_colored_orange"},
        {12, 12, 14, 13, 15, 15, texture="ztones:sets/sols/sols_ (1)"},
        {12, 10, 14, 13, 12, 15, texture="wool_colored_orange"},
        {12, 9, 14, 13, 10, 15, texture="ztones:sets/fort/fort_ (12)"},
        {12, 8, 14, 13, 9, 15, texture="ztones:sets/iszm/iszm_ (6)"},
        {12, 6, 14, 13, 8, 15, texture="wool_colored_orange"},
        {12, 5, 14, 13, 6, 15, texture="ztones:sets/fort/fort_ (13)"},
        {12, 0, 14, 13, 5, 15, texture="wool_colored_orange"},
        {13, 15, 14, 14, 16, 15, texture="ztones:sets/fort/fort_ (6)"},
        {13, 14, 14, 14, 15, 15, texture="ztones:sets/agon/agon_ (10)"},
        {13, 13, 14, 14, 14, 15, texture="wool_colored_orange"},
        {13, 10, 14, 14, 13, 15, texture="ztones:sets/sols/sols_ (1)"},
        {13, 9, 14, 14, 10, 15, texture="wool_colored_orange"},
        {13, 8, 14, 14, 9, 15, texture="ztones:sets/fort/fort_ (12)"},
        {13, 7, 14, 14, 8, 15, texture="ztones:sets/iszm/iszm_ (6)"},
        {13, 6, 14, 14, 7, 15, texture="ztones:sets/sols/sols_ (1)"},
        {13, 5, 14, 14, 6, 15, texture="ztones:sets/iszm/iszm_ (6)"},
        {13, 4, 14, 14, 5, 15, texture="ztones:sets/agon/agon_ (10)"},
        {13, 3, 14, 14, 4, 15, texture="wool_colored_orange"},
        {13, 1, 14, 14, 3, 15, texture="ztones:sets/iszm/iszm_ (6)"},
        {13, 0, 14, 14, 1, 15, texture="wool_colored_orange"},
        {14, 15, 14, 15, 16, 15, texture="ztones:sets/mint/mint_ (6)"},
        {14, 14, 14, 15, 15, 15, texture="ztones:sets/vena/vena_ (0)"},
        {14, 13, 14, 15, 14, 15, texture="ztones:sets/fort/fort_ (15)"},
        {14, 12, 14, 15, 13, 15, texture="hardened_clay_stained_red"},
        {14, 11, 14, 15, 12, 15, texture="ztones:sets/iszm/iszm_ (6)"},
        {14, 8, 14, 15, 11, 15, texture="ztones:sets/sols/sols_ (1)"},
        {14, 7, 14, 15, 8, 15, texture="wool_colored_orange"},
        {14, 6, 14, 15, 7, 15, texture="ztones:sets/fort/fort_ (12)"},
        {14, 5, 14, 15, 6, 15, texture="ztones:sets/sols/sols_ (1)"},
        {14, 4, 14, 15, 5, 15, texture="ztones:sets/fort/fort_ (15)"},
        {14, 3, 14, 15, 4, 15, texture="ztones:sets/fort/fort_ (1)"},
        {14, 2, 14, 15, 3, 15, texture="ztones:sets/agon/agon_ (12)"},
        {14, 1, 14, 15, 2, 15, texture="ztones:sets/cray/cray_ (14)"},
        {14, 0, 14, 15, 1, 15, texture="ztones:sets/cray/cray_ (13)"},
        {15, 15, 14, 16, 16, 15, texture="ztones:sets/myst/myst_ (3)"},
        {15, 14, 14, 16, 15, 15, texture="ztones:sets/fort/fort_ (11)"},
        {15, 13, 14, 16, 14, 15, texture="hardened_clay_stained_silver"},
        {15, 12, 14, 16, 13, 15, texture="ztones:sets/fort/fort_ (6)"},
        {15, 11, 14, 16, 12, 15, texture="ztones:sets/fort/fort_ (15)"},
        {15, 10, 14, 16, 11, 15, texture="hardened_clay_stained_red"},
        {15, 9, 14, 16, 10, 15, texture="ztones:sets/iszm/iszm_ (6)"},
        {15, 8, 14, 16, 9, 15, texture="wool_colored_orange"},
        {15, 5, 14, 16, 8, 15, texture="ztones:sets/sols/sols_ (1)"},
        {15, 4, 14, 16, 5, 15, texture="ztones:sets/iszm/iszm_ (6)"},
        {15, 3, 14, 16, 4, 15, texture="ztones:sets/fort/fort_ (0)"},
        {15, 2, 14, 16, 3, 15, texture="ztones:sets/roen/roen_ (0)"},
        {15, 0, 14, 16, 2, 15, texture="ztones:sets/fort/fort_ (11)"},
    }
}
                