
{
    label = "8_5",
    tooltip = "by ba3ement",
    emitRedstone = true,
    buttonMode = true,
    shapes={
        {0, 13, 14, 1, 16, 15, texture="ztones:sets/fort/fort_ (11)"},
        {0, 12, 14, 1, 13, 15, texture="ztones:sets/sols/sols_ (3)"},
        {0, 11, 14, 1, 12, 15, texture="ztones:sets/roen/roen_ (0)"},
        {0, 9, 14, 1, 11, 15, texture="ztones:sets/glaxx/glaxx_ (15)"},
        {0, 8, 14, 1, 9, 15, texture="hardened_clay_stained_silver"},
        {0, 7, 14, 1, 8, 15, texture="ztones:stoneTile"},
        {0, 6, 14, 1, 7, 15, texture="ztones:sets/roen/roen_ (0)"},
        {0, 5, 14, 1, 6, 15, texture="ztones:sets/sols/sols_ (3)"},
        {0, 1, 14, 1, 5, 15, texture="ztones:sets/fort/fort_ (10)"},
        {0, 0, 14, 1, 1, 15, texture="ztones:sets/sols/sols_ (3)"},
        {1, 14, 14, 2, 16, 15, texture="ztones:sets/fort/fort_ (11)"},
        {1, 13, 14, 2, 14, 15, texture="ztones:sets/roen/roen_ (0)"},
        {1, 12, 14, 2, 13, 15, texture="ztones:sets/fort/fort_ (11)"},
        {1, 11, 14, 2, 12, 15, texture="ztones:sets/fort/fort_ (15)"},
        {1, 10, 14, 2, 11, 15, texture="ztones:sets/lair/lair_ (10)"},
        {1, 9, 14, 2, 10, 15, texture="ztones:sets/mint/mint_ (4)"},
        {1, 8, 14, 2, 9, 15, texture="ztones:sets/roen/roen_ (0)"},
        {1, 7, 14, 2, 8, 15, texture="ztones:sets/fort/fort_ (11)"},
        {1, 6, 14, 2, 7, 15, texture="ztones:stoneTile"},
        {1, 4, 14, 2, 6, 15, texture="ztones:sets/fort/fort_ (11)"},
        {1, 0, 14, 2, 4, 15, texture="ztones:sets/fort/fort_ (10)"},
        {2, 14, 14, 3, 16, 15, texture="ztones:sets/fort/fort_ (11)"},
        {2, 13, 14, 3, 14, 15, texture="ztones:sets/roen/roen_ (0)"},
        {2, 12, 14, 3, 13, 15, texture="wool_colored_brown"},
        {2, 10, 14, 3, 12, 15, texture="ztones:sets/iszm/iszm_ (6)"},
        {2, 9, 14, 3, 10, 15, texture="ztones:sets/fort/fort_ (13)"},
        {2, 8, 14, 3, 9, 15, texture="hardened_clay"},
        {2, 7, 14, 3, 8, 15, texture="ztones:stoneTile"},
        {2, 6, 14, 3, 7, 15, texture="ztones:sets/mint/mint_ (4)"},
        {2, 3, 14, 3, 6, 15, texture="ztones:sets/fort/fort_ (11)"},
        {2, 2, 14, 3, 3, 15, texture="ztones:sets/roen/roen_ (0)"},
        {2, 0, 14, 3, 2, 15, texture="ztones:sets/fort/fort_ (10)"},
        {3, 15, 14, 4, 16, 15, texture="ztones:sets/fort/fort_ (11)"},
        {3, 14, 14, 4, 15, 15, texture="ztones:sets/roen/roen_ (0)"},
        {3, 13, 14, 4, 14, 15, texture="ztones:sets/lair/lair_ (15)"},
        {3, 12, 14, 4, 13, 15, texture="ztones:sets/fort/fort_ (15)"},
        {3, 11, 14, 4, 12, 15, texture="wool_colored_red"},
        {3, 10, 14, 4, 11, 15, texture="ztones:sets/agon/agon_ (10)"},
        {3, 9, 14, 4, 10, 15, texture="ztones:sets/iszm/iszm_ (6)"},
        {3, 8, 14, 4, 9, 15, texture="ztones:sets/agon/agon_ (10)"},
        {3, 7, 14, 4, 8, 15, texture="ztones:sets/fort/fort_ (13)"},
        {3, 6, 14, 4, 7, 15, texture="hardened_clay"},
        {3, 5, 14, 4, 6, 15, texture="ztones:sets/kryp/kryp_ (5)"},
        {3, 4, 14, 4, 5, 15, texture="ztones:sets/myst/myst_ (3)"},
        {3, 3, 14, 4, 4, 15, texture="ztones:sets/fort/fort_ (11)"},
        {3, 1, 14, 4, 3, 15, texture="ztones:sets/roen/roen_ (0)"},
        {3, 0, 14, 4, 1, 15, texture="ztones:sets/fort/fort_ (10)"},
        {4, 14, 14, 5, 16, 15, texture="ztones:sets/fort/fort_ (11)"},
        {4, 13, 14, 5, 14, 15, texture="ztones:sets/lair/lair_ (5)"},
        {4, 11, 14, 5, 13, 15, texture="ztones:sets/iszm/iszm_ (6)"},
        {4, 10, 14, 5, 11, 15, texture="ztones:sets/lair/lair_ (2)"},
        {4, 9, 14, 5, 10, 15, texture="ztones:sets/iszm/iszm_ (10)"},
        {4, 7, 14, 5, 9, 15, texture="ztones:sets/iszm/iszm_ (6)"},
        {4, 5, 14, 5, 7, 15, texture="ztones:sets/agon/agon_ (10)"},
        {4, 4, 14, 5, 5, 15, texture="ztones:sets/fort/fort_ (13)"},
        {4, 3, 14, 5, 4, 15, texture="ztones:sets/cray/cray_ (12)"},
        {4, 2, 14, 5, 3, 15, texture="hardened_clay"},
        {4, 1, 14, 5, 2, 15, texture="ztones:sets/agon/agon_ (12)"},
        {4, 0, 14, 5, 1, 15, texture="ztones:sets/fort/fort_ (11)"},
        {5, 14, 14, 6, 16, 15, texture="ztones:sets/fort/fort_ (11)"},
        {5, 13, 14, 6, 14, 15, texture="ztones:sets/cray/cray_ (13)"},
        {5, 12, 14, 6, 13, 15, texture="ztones:sets/iszm/iszm_ (6)"},
        {5, 10, 14, 6, 12, 15, texture="wool_colored_orange"},
        {5, 9, 14, 6, 10, 15, texture="ztones:sets/fort/fort_ (13)"},
        {5, 8, 14, 6, 9, 15, texture="ztones:sets/lair/lair_ (2)"},
        {5, 3, 14, 6, 8, 15, texture="ztones:sets/iszm/iszm_ (6)"},
        {5, 2, 14, 6, 3, 15, texture="ztones:sets/agon/agon_ (10)"},
        {5, 0, 14, 6, 2, 15, texture="hardened_clay_stained_red"},
        {6, 14, 14, 7, 16, 15, texture="ztones:sets/fort/fort_ (11)"},
        {6, 13, 14, 7, 14, 15, texture="hardened_clay_stained_red"},
        {6, 10, 14, 7, 13, 15, texture="ztones:sets/iszm/iszm_ (6)"},
        {6, 9, 14, 7, 10, 15, texture="wool_colored_orange"},
        {6, 8, 14, 7, 9, 15, texture="ztones:sets/iszm/iszm_ (10)"},
        {6, 7, 14, 7, 8, 15, texture="ztones:sets/fort/fort_ (15)"},
        {6, 4, 14, 7, 7, 15, texture="ztones:sets/fort/fort_ (12)"},
        {6, 3, 14, 7, 4, 15, texture="wool_colored_orange"},
        {6, 0, 14, 7, 3, 15, texture="ztones:sets/fort/fort_ (12)"},
        {7, 15, 14, 8, 16, 15, texture="ztones:sets/agon/agon_ (12)"},
        {7, 14, 14, 8, 15, 15, texture="ztones:sets/mint/mint_ (4)"},
        {7, 13, 14, 8, 14, 15, texture="ztones:sets/fort/fort_ (13)"},
        {7, 8, 14, 8, 13, 15, texture="ztones:sets/iszm/iszm_ (6)"},
        {7, 6, 14, 8, 8, 15, texture="hardened_clay_stained_red"},
        {7, 5, 14, 8, 6, 15, texture="ztones:sets/agon/agon_ (10)"},
        {7, 4, 14, 8, 5, 15, texture="hardened_clay_stained_red"},
        {7, 3, 14, 8, 4, 15, texture="ztones:sets/fort/fort_ (13)"},
        {7, 2, 14, 8, 3, 15, texture="hardened_clay_stained_red"},
        {7, 1, 14, 8, 2, 15, texture="wool_colored_orange"},
        {7, 0, 14, 8, 1, 15, texture="ztones:sets/fort/fort_ (12)"},
        {8, 15, 14, 9, 16, 15, texture="ztones:sets/myst/myst_ (7)"},
        {8, 14, 14, 9, 15, 15, texture="ztones:sets/kryp/kryp_ (5)"},
        {8, 13, 14, 9, 14, 15, texture="ztones:sets/lair/lair_ (5)"},
        {8, 12, 14, 9, 13, 15, texture="ztones:sets/iszm/iszm_ (6)"},
        {8, 4, 14, 9, 12, 15, texture="wool_colored_orange"},
        {8, 3, 14, 9, 4, 15, texture="ztones:sets/iszm/iszm_ (6)"},
        {8, 2, 14, 9, 3, 15, texture="wool_colored_red"},
        {8, 1, 14, 9, 2, 15, texture="ztones:sets/lair/lair_ (2)"},
        {8, 0, 14, 9, 1, 15, texture="ztones:sets/fort/fort_ (13)"},
        {9, 15, 14, 10, 16, 15, texture="ztones:sets/sols/sols_ (1)"},
        {9, 14, 14, 10, 15, 15, texture="ztones:sets/agon/agon_ (12)"},
        {9, 13, 14, 10, 14, 15, texture="ztones:sets/lair/lair_ (10)"},
        {9, 12, 14, 10, 13, 15, texture="ztones:sets/myst/myst_ (14)"},
        {9, 11, 14, 10, 12, 15, texture="hardened_clay_stained_red"},
        {9, 5, 14, 10, 11, 15, texture="ztones:sets/iszm/iszm_ (6)"},
        {9, 2, 14, 10, 5, 15, texture="wool_colored_orange"},
        {9, 1, 14, 10, 2, 15, texture="ztones:sets/iszm/iszm_ (6)"},
        {9, 0, 14, 10, 1, 15, texture="wool_colored_red"},
        {10, 15, 14, 11, 16, 15, texture="hardened_clay_stained_red"},
        {10, 14, 14, 11, 15, 15, texture="ztones:sets/sols/sols_ (1)"},
        {10, 13, 14, 11, 14, 15, texture="wool_colored_green"},
        {10, 12, 14, 11, 13, 15, texture="hardened_clay_stained_red"},
        {10, 11, 14, 11, 12, 15, texture="wool_colored_orange"},
        {10, 10, 14, 11, 11, 15, texture="ztones:sets/fort/fort_ (13)"},
        {10, 2, 14, 11, 10, 15, texture="ztones:sets/iszm/iszm_ (6)"},
        {10, 0, 14, 11, 2, 15, texture="wool_colored_orange"},
        {11, 15, 14, 12, 16, 15, texture="ztones:sets/fort/fort_ (11)"},
        {11, 14, 14, 12, 15, 15, texture="ztones:sets/iszm/iszm_ (13)"},
        {11, 13, 14, 12, 14, 15, texture="ztones:sets/glaxx/glaxx_ (13)"},
        {11, 12, 14, 12, 13, 15, texture="wool_colored_brown"},
        {11, 11, 14, 12, 12, 15, texture="ztones:sets/myst/myst_ (1)"},
        {11, 10, 14, 12, 11, 15, texture="wool_colored_orange"},
        {11, 9, 14, 12, 10, 15, texture="hardened_clay_stained_red"},
        {11, 6, 14, 12, 9, 15, texture="wool_colored_orange"},
        {11, 4, 14, 12, 6, 15, texture="ztones:sets/fort/fort_ (12)"},
        {11, 0, 14, 12, 4, 15, texture="ztones:sets/iszm/iszm_ (6)"},
        {12, 15, 14, 13, 16, 15, texture="ztones:sets/fort/fort_ (11)"},
        {12, 14, 14, 13, 15, 15, texture="ztones:sets/lair/lair_ (15)"},
        {12, 12, 14, 13, 14, 15, texture="ztones:sets/sols/sols_ (0)"},
        {12, 11, 14, 13, 12, 15, texture="ztones:sets/iszm/iszm_ (10)"},
        {12, 10, 14, 13, 11, 15, texture="wool_colored_pink"},
        {12, 9, 14, 13, 10, 15, texture="ztones:sets/myst/myst_ (5)"},
        {12, 8, 14, 13, 9, 15, texture="ztones:sets/agon/agon_ (10)"},
        {12, 2, 14, 13, 8, 15, texture="wool_colored_orange"},
        {12, 0, 14, 13, 2, 15, texture="ztones:sets/fort/fort_ (12)"},
        {13, 15, 14, 14, 16, 15, texture="ztones:sets/iszm/iszm_ (10)"},
        {13, 14, 14, 14, 15, 15, texture="ztones:sets/fort/fort_ (13)"},
        {13, 13, 14, 14, 14, 15, texture="ztones:sets/fort/fort_ (15)"},
        {13, 12, 14, 14, 13, 15, texture="ztones:sets/myst/myst_ (0)"},
        {13, 11, 14, 14, 12, 15, texture="ztones:sets/iszm/iszm_ (13)"},
        {13, 10, 14, 14, 11, 15, texture="ztones:sets/agon/agon_ (10)"},
        {13, 9, 14, 14, 10, 15, texture="wool_colored_orange"},
        {13, 8, 14, 14, 9, 15, texture="hardened_clay_stained_red"},
        {13, 7, 14, 14, 8, 15, texture="ztones:sets/iszm/iszm_ (6)"},
        {13, 0, 14, 14, 7, 15, texture="wool_colored_orange"},
        {14, 14, 14, 15, 16, 15, texture="wool_colored_orange"},
        {14, 13, 14, 15, 14, 15, texture="ztones:sets/agon/agon_ (10)"},
        {14, 12, 14, 15, 13, 15, texture="wool_colored_black"},
        {14, 11, 14, 15, 12, 15, texture="wool_colored_yellow"},
        {14, 10, 14, 15, 11, 15, texture="hardened_clay_stained_orange"},
        {14, 8, 14, 15, 10, 15, texture="wool_colored_orange"},
        {14, 7, 14, 15, 8, 15, texture="hardened_clay_stained_red"},
        {14, 6, 14, 15, 7, 15, texture="ztones:sets/iszm/iszm_ (6)"},
        {14, 0, 14, 15, 6, 15, texture="wool_colored_orange"},
        {15, 14, 14, 16, 16, 15, texture="wool_colored_orange"},
        {15, 13, 14, 16, 14, 15, texture="ztones:sets/sols/sols_ (1)"},
        {15, 12, 14, 16, 13, 15, texture="ztones:sets/myst/myst_ (14)"},
        {15, 11, 14, 16, 12, 15, texture="ztones:sets/reds/reds_ (15)"},
        {15, 10, 14, 16, 11, 15, texture="ztones:sets/fort/fort_ (2)"},
        {15, 9, 14, 16, 10, 15, texture="ztones:sets/fort/fort_ (12)"},
        {15, 8, 14, 16, 9, 15, texture="ztones:sets/sols/sols_ (1)"},
        {15, 7, 14, 16, 8, 15, texture="ztones:sets/fort/fort_ (12)"},
        {15, 6, 14, 16, 7, 15, texture="hardened_clay_stained_red"},
        {15, 2, 14, 16, 6, 15, texture="wool_colored_orange"},
        {15, 1, 14, 16, 2, 15, texture="ztones:sets/fort/fort_ (12)"},
        {15, 0, 14, 16, 1, 15, texture="hardened_clay_stained_red"},
    }
}
                