
{
    label = "9_12",
    tooltip = "by ba3ement",
    emitRedstone = true,
    buttonMode = true,
    shapes={
        {0, 15, 14, 1, 16, 15, texture="ztones:sets/cray/cray_ (12)"},
        {0, 14, 14, 1, 15, 15, texture="hardened_clay"},
        {0, 13, 14, 1, 14, 15, texture="hardened_clay_stained_red"},
        {0, 11, 14, 1, 13, 15, texture="ztones:sets/fort/fort_ (12)"},
        {0, 10, 14, 1, 11, 15, texture="wool_colored_orange"},
        {0, 9, 14, 1, 10, 15, texture="ztones:sets/myst/myst_ (5)"},
        {0, 8, 14, 1, 9, 15, texture="ztones:sets/fort/fort_ (13)"},
        {0, 7, 14, 1, 8, 15, texture="wool_colored_orange"},
        {0, 6, 14, 1, 7, 15, texture="ztones:sets/sols/sols_ (1)"},
        {0, 5, 14, 1, 6, 15, texture="ztones:sets/fort/fort_ (13)"},
        {1, 15, 14, 2, 16, 15, texture="ztones:sets/lair/lair_ (10)"},
        {1, 14, 14, 2, 15, 15, texture="ztones:sets/myst/myst_ (14)"},
        {1, 13, 14, 2, 14, 15, texture="ztones:sets/cray/cray_ (12)"},
        {1, 12, 14, 2, 13, 15, texture="ztones:sets/myst/myst_ (5)"},
        {1, 11, 14, 2, 12, 15, texture="wool_colored_orange"},
        {1, 10, 14, 2, 11, 15, texture="ztones:sets/fort/fort_ (12)"},
        {1, 9, 14, 2, 10, 15, texture="wool_colored_orange"},
        {1, 8, 14, 2, 9, 15, texture="ztones:sets/fort/fort_ (13)"},
        {1, 7, 14, 2, 8, 15, texture="ztones:sets/agon/agon_ (11)"},
        {1, 6, 14, 2, 7, 15, texture="hardened_clay_stained_orange"},
        {1, 5, 14, 2, 6, 15, texture="ztones:sets/vect/vect_ (0)"},
        {2, 15, 14, 3, 16, 15, texture="hardened_clay"},
        {2, 14, 14, 3, 15, 15, texture="ztones:sets/iszm/iszm_ (10)"},
        {2, 12, 14, 3, 14, 15, texture="ztones:sets/cray/cray_ (12)"},
        {2, 11, 14, 3, 12, 15, texture="ztones:sets/fort/fort_ (12)"},
        {2, 10, 14, 3, 11, 15, texture="ztones:sets/myst/myst_ (14)"},
        {2, 9, 14, 3, 10, 15, texture="wool_colored_orange"},
        {2, 8, 14, 3, 9, 15, texture="ztones:sets/sols/sols_ (1)"},
        {2, 7, 14, 3, 8, 15, texture="wool_colored_brown"},
        {3, 15, 14, 4, 16, 15, texture="ztones:sets/myst/myst_ (5)"},
        {3, 14, 14, 4, 15, 15, texture="ztones:sets/lair/lair_ (5)"},
        {3, 13, 14, 4, 14, 15, texture="hardened_clay_stained_red"},
        {3, 12, 14, 4, 13, 15, texture="ztones:sets/iszm/iszm_ (6)"},
        {3, 11, 14, 4, 12, 15, texture="ztones:sets/fort/fort_ (13)"},
        {3, 10, 14, 4, 11, 15, texture="ztones:sets/myst/myst_ (14)"},
        {3, 9, 14, 4, 10, 15, texture="wool_colored_orange"},
        {3, 8, 14, 4, 9, 15, texture="ztones:sets/sols/sols_ (1)"},
        {3, 7, 14, 4, 8, 15, texture="ztones:sets/iszm/iszm_ (10)"},
        {4, 15, 14, 5, 16, 15, texture="hardened_clay_stained_orange"},
        {4, 14, 14, 5, 15, 15, texture="ztones:sets/agon/agon_ (12)"},
        {4, 13, 14, 5, 14, 15, texture="hardened_clay_stained_red"},
        {4, 12, 14, 5, 13, 15, texture="ztones:sets/iszm/iszm_ (6)"},
        {4, 10, 14, 5, 12, 15, texture="ztones:sets/fort/fort_ (13)"},
        {4, 9, 14, 5, 10, 15, texture="ztones:sets/sols/sols_ (1)"},
        {4, 8, 14, 5, 9, 15, texture="ztones:sets/iszm/iszm_ (7)"},
        {4, 7, 14, 5, 8, 15, texture="ztones:sets/vect/vect_ (0)"},
        {5, 15, 14, 6, 16, 15, texture="wool_colored_brown"},
        {5, 14, 14, 6, 15, 15, texture="ztones:sets/agon/agon_ (11)"},
        {5, 13, 14, 6, 14, 15, texture="ztones:sets/fort/fort_ (12)"},
        {5, 12, 14, 6, 13, 15, texture="ztones:sets/agon/agon_ (10)"},
        {5, 11, 14, 6, 12, 15, texture="ztones:sets/iszm/iszm_ (6)"},
        {5, 9, 14, 6, 11, 15, texture="ztones:sets/fort/fort_ (13)"},
        {5, 8, 14, 6, 9, 15, texture="ztones:sets/lair/lair_ (2)"},
        {6, 15, 14, 7, 16, 15, texture="hardened_clay_stained_red"},
        {6, 14, 14, 7, 15, 15, texture="ztones:sets/lair/lair_ (5)"},
        {6, 13, 14, 7, 14, 15, texture="hardened_clay"},
        {6, 12, 14, 7, 13, 15, texture="hardened_clay_stained_red"},
        {6, 11, 14, 7, 12, 15, texture="ztones:sets/fort/fort_ (12)"},
        {6, 10, 14, 7, 11, 15, texture="hardened_clay_stained_orange"},
        {6, 9, 14, 7, 10, 15, texture="wool_colored_black"},
        {7, 15, 14, 8, 16, 15, texture="wool_colored_orange"},
        {7, 14, 14, 8, 15, 15, texture="hardened_clay_stained_red"},
        {7, 13, 14, 8, 14, 15, texture="ztones:sets/myst/myst_ (5)"},
        {7, 12, 14, 8, 13, 15, texture="ztones:sets/myst/myst_ (14)"},
        {7, 11, 14, 8, 12, 15, texture="ztones:sets/iszm/iszm_ (6)"},
        {7, 10, 14, 8, 11, 15, texture="ztones:sets/iszm/iszm_ (7)"},
        {7, 9, 14, 8, 10, 15, texture="ztones:sets/fort/fort_ (6)"},
        {8, 15, 14, 9, 16, 15, texture="ztones:sets/sols/sols_ (1)"},
        {8, 12, 14, 9, 15, 15, texture="wool_colored_orange"},
        {8, 11, 14, 9, 12, 15, texture="hardened_clay_stained_red"},
        {8, 10, 14, 9, 11, 15, texture="wool_colored_red"},
        {9, 15, 14, 10, 16, 15, texture="ztones:sets/fort/fort_ (2)"},
        {9, 14, 14, 10, 15, 15, texture="ztones:sets/sols/sols_ (1)"},
        {9, 13, 14, 10, 14, 15, texture="wool_colored_red"},
        {9, 12, 14, 10, 13, 15, texture="wool_colored_brown"},
        {9, 11, 14, 10, 12, 15, texture="ztones:sets/cray/cray_ (2)"},
        {9, 10, 14, 10, 11, 15, texture="ztones:sets/fort/fort_ (10)"},
        {10, 14, 14, 11, 15, 15, texture="ztones:sets/agon/agon_ (12)"},
        {10, 13, 14, 11, 14, 15, texture="ztones:sets/roen/roen_ (2)"},
        {10, 12, 14, 11, 13, 15, texture="quartz_block_side"},
    }
}
                