
{
    label = "1_3",
    emitRedstone = true,
    buttonMode = true,
    shapes={
        {0, 0, 5, 1, 1, 6, texture="wool_colored_white"},
        {0, 0, 0, 1, 1, 5, texture="wool_colored_yellow"},
        {1, 0, 5, 2, 1, 6, texture="wool_colored_white"},
        {1, 0, 0, 2, 1, 5, texture="wool_colored_yellow"},
        {2, 0, 6, 3, 1, 7, texture="wool_colored_white"},
        {2, 0, 0, 3, 1, 6, texture="wool_colored_yellow"},
        {3, 0, 6, 4, 1, 7, texture="wool_colored_white"},
        {3, 0, 0, 4, 1, 6, texture="wool_colored_yellow"},
        {4, 0, 7, 5, 1, 8, texture="wool_colored_white"},
        {4, 0, 0, 5, 1, 7, texture="wool_colored_yellow"},
        {5, 0, 7, 6, 1, 8, texture="wool_colored_white"},
        {5, 0, 1, 6, 1, 7, texture="wool_colored_yellow"},
        {5, 0, 0, 6, 1, 1, texture="wool_colored_pink"},
        {6, 0, 8, 7, 1, 9, texture="wool_colored_white"},
        {6, 0, 0, 7, 1, 8, texture="wool_colored_yellow"},
        {7, 0, 8, 8, 1, 9, texture="wool_colored_white"},
        {7, 0, 2, 8, 1, 8, texture="wool_colored_yellow"},
        {7, 0, 1, 8, 1, 2, texture="wool_colored_pink"},
        {7, 0, 0, 8, 1, 1, texture="wool_colored_white"},
        {8, 0, 9, 9, 1, 10, texture="wool_colored_white"},
        {8, 0, 1, 9, 1, 9, texture="wool_colored_yellow"},
        {8, 0, 0, 9, 1, 1, texture="wool_colored_white"},
        {9, 0, 9, 10, 1, 10, texture="wool_colored_white"},
        {9, 0, 3, 10, 1, 9, texture="wool_colored_yellow"},
        {9, 0, 2, 10, 1, 3, texture="wool_colored_pink"},
        {9, 0, 1, 10, 1, 2, texture="wool_colored_white"},
        {10, 0, 10, 11, 1, 11, texture="wool_colored_white"},
        {10, 0, 2, 11, 1, 10, texture="wool_colored_yellow"},
        {10, 0, 1, 11, 1, 2, texture="wool_colored_white"},
        {11, 0, 10, 12, 1, 11, texture="wool_colored_white"},
        {11, 0, 4, 12, 1, 10, texture="wool_colored_yellow"},
        {11, 0, 3, 12, 1, 4, texture="wool_colored_pink"},
        {11, 0, 2, 12, 1, 3, texture="wool_colored_white"},
        {12, 0, 3, 13, 1, 11, texture="wool_colored_yellow"},
        {12, 0, 2, 13, 1, 3, texture="wool_colored_white"},
        {13, 0, 11, 14, 1, 12, texture="wool_colored_white"},
        {13, 0, 10, 14, 1, 11, texture="wool_colored_yellow"},
        {13, 0, 8, 14, 1, 10, texture="wool_colored_black"},
        {13, 0, 5, 14, 1, 8, texture="wool_colored_yellow"},
        {13, 0, 3, 14, 1, 5, texture="wool_colored_pink"},
        {14, 0, 11, 15, 1, 12, texture="wool_colored_yellow"},
        {14, 0, 10, 15, 1, 11, texture="wool_colored_black"},
        {14, 0, 8, 15, 1, 10, texture="wool_colored_yellow"},
        {14, 0, 7, 15, 1, 8, texture="wool_colored_black"},
        {14, 0, 4, 15, 1, 7, texture="wool_colored_yellow"},
        {14, 0, 3, 15, 1, 4, texture="wool_colored_white"},
        {15, 0, 12, 16, 1, 13, texture="wool_colored_white"},
        {15, 0, 11, 16, 1, 12, texture="wool_colored_yellow"},
        {15, 0, 10, 16, 1, 11, texture="wool_colored_black"},
        {15, 0, 7, 16, 1, 10, texture="wool_colored_yellow"},
        {15, 0, 6, 16, 1, 7, texture="wool_colored_black"},
        {15, 0, 4, 16, 1, 6, texture="wool_colored_pink"},
    }
}
                