
{
    label = "7_4",
    emitRedstone = true,
    buttonMode = true,
    shapes={
        {0, 14, 14, 1, 16, 15, texture="wool_colored_black"},
        {0, 8, 14, 1, 14, 15, texture="wool_colored_red"},
        {0, 0, 14, 1, 8, 15, texture="wool_colored_black"},
        {1, 14, 14, 2, 16, 15, texture="wool_colored_black"},
        {1, 6, 14, 2, 14, 15, texture="wool_colored_red"},
        {1, 0, 14, 2, 6, 15, texture="wool_colored_black"},
        {2, 15, 14, 3, 16, 15, texture="wool_colored_black"},
        {2, 5, 14, 3, 15, 15, texture="wool_colored_red"},
        {2, 0, 14, 3, 5, 15, texture="wool_colored_black"},
        {3, 15, 14, 4, 16, 15, texture="wool_colored_black"},
        {3, 3, 14, 4, 15, 15, texture="wool_colored_red"},
        {3, 0, 14, 4, 3, 15, texture="wool_colored_black"},
        {4, 15, 14, 5, 16, 15, texture="wool_colored_black"},
        {4, 2, 14, 5, 15, 15, texture="wool_colored_red"},
        {4, 0, 14, 5, 2, 15, texture="wool_colored_black"},
        {5, 15, 14, 6, 16, 15, texture="wool_colored_black"},
        {5, 0, 14, 6, 15, 15, texture="wool_colored_red"},
        {6, 15, 14, 7, 16, 15, texture="wool_colored_black"},
        {6, 0, 14, 7, 15, 15, texture="wool_colored_red"},
        {7, 0, 14, 8, 16, 15, texture="wool_colored_red"},
        {8, 0, 14, 9, 16, 15, texture="wool_colored_red"},
        {9, 14, 14, 10, 16, 15, texture="wool_colored_black"},
        {9, 0, 14, 10, 14, 15, texture="wool_colored_red"},
        {10, 11, 14, 11, 16, 15, texture="wool_colored_black"},
        {10, 0, 14, 11, 11, 15, texture="wool_colored_red"},
        {11, 9, 14, 12, 16, 15, texture="wool_colored_black"},
        {11, 0, 14, 12, 9, 15, texture="wool_colored_red"},
        {12, 7, 14, 13, 16, 15, texture="wool_colored_black"},
        {12, 0, 14, 13, 7, 15, texture="wool_colored_red"},
        {13, 5, 14, 14, 16, 15, texture="wool_colored_black"},
        {13, 0, 14, 14, 5, 15, texture="wool_colored_red"},
        {14, 3, 14, 15, 16, 15, texture="wool_colored_black"},
        {14, 0, 14, 15, 3, 15, texture="wool_colored_red"},
        {15, 1, 14, 16, 16, 15, texture="wool_colored_black"},
        {15, 0, 14, 16, 1, 15, texture="wool_colored_red"},
    }
}
                