
{
    label = "8_4",
    emitRedstone = true,
    buttonMode = true,
    shapes={
        {0, 2, 14, 1, 16, 15, texture="wool_colored_black"},
        {0, 1, 14, 1, 2, 15, texture="wool_colored_red"},
        {1, 2, 14, 2, 16, 15, texture="wool_colored_black"},
        {1, 1, 14, 2, 2, 15, texture="wool_colored_red"},
        {2, 2, 14, 3, 16, 15, texture="wool_colored_black"},
        {2, 1, 14, 3, 2, 15, texture="wool_colored_red"},
        {3, 2, 14, 4, 16, 15, texture="wool_colored_black"},
        {3, 1, 14, 4, 2, 15, texture="wool_colored_red"},
        {4, 1, 14, 5, 16, 15, texture="wool_colored_black"},
        {5, 1, 14, 6, 16, 15, texture="wool_colored_black"},
        {5, 0, 14, 6, 1, 15, texture="wool_colored_red"},
        {6, 15, 14, 7, 16, 15, texture="wool_colored_red"},
        {6, 1, 14, 7, 15, 15, texture="wool_colored_black"},
        {6, 0, 14, 7, 1, 15, texture="wool_colored_red"},
        {7, 13, 14, 8, 16, 15, texture="wool_colored_red"},
        {7, 1, 14, 8, 13, 15, texture="wool_colored_black"},
        {7, 0, 14, 8, 1, 15, texture="wool_colored_red"},
        {8, 12, 14, 9, 16, 15, texture="wool_colored_red"},
        {8, 1, 14, 9, 12, 15, texture="wool_colored_black"},
        {8, 0, 14, 9, 1, 15, texture="wool_colored_red"},
        {9, 11, 14, 10, 16, 15, texture="wool_colored_red"},
        {9, 1, 14, 10, 11, 15, texture="wool_colored_black"},
        {9, 0, 14, 10, 1, 15, texture="wool_colored_red"},
        {10, 10, 14, 11, 16, 15, texture="wool_colored_red"},
        {10, 1, 14, 11, 10, 15, texture="wool_colored_black"},
        {10, 0, 14, 11, 1, 15, texture="wool_colored_red"},
        {11, 9, 14, 12, 16, 15, texture="wool_colored_red"},
        {11, 1, 14, 12, 9, 15, texture="wool_colored_black"},
        {11, 0, 14, 12, 1, 15, texture="wool_colored_red"},
        {12, 8, 14, 13, 16, 15, texture="wool_colored_red"},
        {12, 0, 14, 13, 8, 15, texture="wool_colored_black"},
        {13, 7, 14, 14, 16, 15, texture="wool_colored_red"},
        {13, 0, 14, 14, 7, 15, texture="wool_colored_black"},
        {14, 6, 14, 15, 16, 15, texture="wool_colored_red"},
        {14, 0, 14, 15, 6, 15, texture="wool_colored_black"},
        {15, 5, 14, 16, 16, 15, texture="wool_colored_red"},
        {15, 0, 14, 16, 5, 15, texture="wool_colored_black"},
    }
}
                